{"http_interactions":[{"request":{"method":"get","uri":"https://api.polygon.io/v2/reference/news?ticker=AAPL&limit=10&order=descending&sort=published_utc&apiKey=POLYGON-KEY","body":{"encoding":"","string":""},"headers":{"Accept":"application/json, text/xml, application/xml, */*"}},"response":{"status":{"status_code":200,"category":"Success","reason":"OK","message":"Success: (200) OK"},"headers":{"server":"nginx/1.19.2","date":"Sat, 26 Jun 2021 14:58:38 GMT","content-type":"application/json","transfer-encoding":"chunked","connection":"keep-alive","vary":"Accept-Encoding","x-request-id":"0b7cdec097cfdfe2e439fd531e52d3af","strict-transport-security":"max-age=15724800; includeSubDomains","content-encoding":"gzip"},"body":{"encoding":"UTF-8","file":false,"string":"{\"results\":[{\"id\":\"g-Ougow3tpquVwjD6kmfnwIlxZQhDyVSLz1_QNp8HRM\",\"publisher\":{\"name\":\"The Motley Fool\",\"homepage_url\":\"https://www.fool.com/\",\"logo_url\":\"https://storage.googleapis.com/polygon-io-public/assets/news/logos/themotleyfool.svg\",\"favicon_url\":\"https://storage.googleapis.com/polygon-io-public/assets/news/favicons/themotleyfool.ico\"},\"title\":\"Buying This Cheap Growth Stock Right Now Is a No-Brainer\",\"author\":\"newsfeedback@fool.com (Harsh Chauhan)\",\"published_utc\":\"2021-06-26T13:15:00Z\",\"article_url\":\"https://www.fool.com/investing/2021/06/26/buying-cheap-growth-stock-now-no-brainer-jabil/\",\"tickers\":[\"JBL\",\"AAPL\"],\"amp_url\":\"https://www.fool.com/amp/investing/2021/06/26/buying-cheap-growth-stock-now-no-brainer-jabil/\",\"image_url\":\"https://g.foolcdn.com/editorial/images/631787/woman-buying-stock-mobile-phone.jpg\",\"description\":\"With end-market growth picking up, investors shouldn't miss the opportunity to buy this tech stock before it soars higher.\",\"keywords\":[\"investing\"]},{\"id\":\"tHNg2u5QTGT4BMFsXD5iIgv1TDvIEBuZuxEXOhr05y8\",\"publisher\":{\"name\":\"The Motley Fool\",\"homepage_url\":\"https://www.fool.com/\",\"logo_url\":\"https://storage.googleapis.com/polygon-io-public/assets/news/logos/themotleyfool.svg\",\"favicon_url\":\"https://storage.googleapis.com/polygon-io-public/assets/news/favicons/themotleyfool.ico\"},\"title\":\"Why Antitrust Actions Against Alphabet May Be Good For Investors\",\"author\":\"newsfeedback@fool.com (Will Healy)\",\"published_utc\":\"2021-06-26T10:12:00Z\",\"article_url\":\"https://www.fool.com/investing/2021/06/26/why-antitrust-actions-against-alphabet-may-be-good/\",\"tickers\":[\"GOOGL\",\"AAPL\",\"GOOG\"],\"amp_url\":\"https://www.fool.com/amp/investing/2021/06/26/why-antitrust-actions-against-alphabet-may-be-good/\",\"image_url\":\"https://g.foolcdn.com/editorial/images/631701/middle-aged-person-sits-in-a-red-chair-lookating-at-a-tablet-in-one-hand.jpg\",\"description\":\"Investors should look beyond Google for potential value.\",\"keywords\":[\"investing\"]},{\"id\":\"Soy0_bjTEPf5YvgPeiNvsDw-CjMLQ-jPmr2ERcjHzro\",\"publisher\":{\"name\":\"Benzinga\",\"homepage_url\":\"https://www.benzinga.com/\",\"logo_url\":\"https://storage.googleapis.com/polygon-io-public/assets/news/logos/benzinga.svg\",\"favicon_url\":\"https://storage.googleapis.com/polygon-io-public/assets/news/favicons/benzinga.ico\"},\"title\":\"Pro Traders Break Down Netflix, Disney Streaming War\",\"author\":\"Adam Eckert\",\"published_utc\":\"2021-06-25T19:21:07Z\",\"article_url\":\"https://www.benzinga.com/analyst-ratings/analyst-color/21/06/21728088/pro-traders-break-down-netflix-disney-streaming-war\",\"tickers\":[\"AAPL\",\"NFLX\",\"DIS\"],\"amp_url\":\"https://www.benzinga.com/amp/content/21728088\",\"image_url\":\"https://cdn2.benzinga.com/files/imagecache/og_image_social_share_1200x630/images/story/2012/33692546634_daa52654a3_c.jpg?width=720\",\"description\":\"ACNBC panel discussed the streaming war between Netflix Inc (NASDAQ: NFLX) and The Walt Disney Co (NYSE: DIS) Friday on CNBC's \\\"Fast Money Halftime Report.\\\"\\nCredit Suisse analyst Douglas Mitchelson upgraded Netflix Friday from Neutral to Outperform and announced a $586 price target, citing the company's strong competitive position. \\nThe Value Awakens: Although there is room for multiple competitors in the streaming space, Sand Hill Global Advisors CIO Brenda Vingiello told CNBC that she prefers Disney over Netflix. \\nDisney's direct-to-consumer business is still being undervalued relative to Netflix, she said, adding that Disney's content is \\\"incredible.\\\"\\nDisney's diversified revenue stream offers more potential upside from current levels, Vingiello noted.\\nNetflix Strikes Back: Netflix is similar to Apple Inc (NASDAQ:\",\"keywords\":[\"Long Ideas\",\"Analyst Color\",\"Upgrades\",\"Price Target\",\"Analyst Ratings\",\"Media\",\"Trading Ideas\"]},{\"id\":\"TA-2jTUUwTRkdL_doovuGN13DHg_HToSoQzfXXl1N40\",\"publisher\":{\"name\":\"MarketWatch\",\"homepage_url\":\"https://www.marketwatch.com/\",\"logo_url\":\"https://storage.googleapis.com/polygon-io-public/assets/news/logos/marketwatch.svg\",\"favicon_url\":\"https://storage.googleapis.com/polygon-io-public/assets/news/favicons/marketwatch.ico\"},\"title\":\"How is the Fed’s tapering of its corporate debt purchases going?\",\"author\":\"MarketWatch\",\"published_utc\":\"2021-06-25T18:23:00Z\",\"article_url\":\"https://www.marketwatch.com/story/how-is-the-feds-tapering-of-its-corporate-debt-purchases-going-11624645394\",\"tickers\":[\"LQD\",\"HYG\",\"JNK\",\"VCSH\",\"AAPL\",\"MMM\",\"AMZN\",\"APA\",\"F\"],\"amp_url\":\"https://www.marketwatch.com/amp/story/how-is-the-feds-tapering-of-its-corporate-debt-purchases-going-11624645394\",\"image_url\":\"https://images.mktw.net/im-360300/social\",\"description\":\"As promised, the Federal Reserve is actively reducing its pandemic-era exposure to the U.S. corporate debt markets, so far without a hitch.\"},{\"id\":\"OQ70fpEKXjWHc49J38NEFH_pLw0jis-WNUjHkdFZBjU\",\"publisher\":{\"name\":\"Zacks Investment Research\",\"homepage_url\":\"https://www.zacks.com/\",\"logo_url\":\"https://storage.googleapis.com/polygon-io-public/assets/news/logos/zacks.png\",\"favicon_url\":\"https://storage.googleapis.com/polygon-io-public/assets/news/favicons/zacks.ico\"},\"title\":\"Amazon's (AMZN) 14 Projects Accelerate Carbon Neutrality Game\",\"author\":\"Zacks Equity Research\",\"published_utc\":\"2021-06-25T17:33:00Z\",\"article_url\":\"https://www.zacks.com/stock/news/1754564/amazons-amzn-14-projects-accelerate-carbon-neutrality-game\",\"tickers\":[\"AMZN\",\"AAPL\",\"MSFT\",\"GOOGL\"],\"amp_url\":\"https://www.zacks.com/amp/stock/news/1754564/amazons-amzn-14-projects-accelerate-carbon-neutrality-game\",\"image_url\":\"https://staticx-tuner.zacks.com/images/articles/main/92/486.jpg\",\"description\":\"Amazon (AMZN) announces 14 wind and solar energy projects, which will be located in the United States, Finland, Canada and Spain.\"},{\"id\":\"Oy7D0clXxNn3ZXCtX_AWzMi5Kthal3MwSPa9OAQ9HJA\",\"publisher\":{\"name\":\"Benzinga\",\"homepage_url\":\"https://www.benzinga.com/\",\"logo_url\":\"https://storage.googleapis.com/polygon-io-public/assets/news/logos/benzinga.svg\",\"favicon_url\":\"https://storage.googleapis.com/polygon-io-public/assets/news/favicons/benzinga.ico\"},\"title\":\"Google Postpones Removing Cookie Tracking Technology By Two Years To 2023: WSJ\",\"author\":\"Anusuya Lahiri\",\"published_utc\":\"2021-06-25T16:36:45Z\",\"article_url\":\"https://www.benzinga.com/news/21/06/21720623/google-postpones-removing-cookie-tracking-technology-by-two-years-to-2023-wsj\",\"tickers\":[\"AAPL\",\"GOOG\",\"GOOGL\"],\"amp_url\":\"https://www.benzinga.com/amp/content/21720623\",\"image_url\":\"https://cdn.benzinga.com/files/imagecache/og_image_social_share_1200x630/images/story/2012/chrome-_image_by_deepanker_verma_from_pixabay_0.jpg\",\"description\":\"Google parent Alphabet Inc (NASDAQ: GOOG) (NASDAQ: GOOGL) has deferred the decision to remove user-tracking technology for its Chrome internet browser, called third-party cookies, to late 2023, the Wall Street Journal reported.\\nIt delayed the initiative by two years from its initial time frame of early 2022.\\nThe delay will offer Google more time to get publishers, advertisers, and regulators comfortable with the new technologies.\\nGoogle’s decision reflects the tech giants’ struggle to address more robust user-privacy protection demands.\\nApple Inc (NASDAQ: AAPL) rolled ...\",\"keywords\":[\"News\",\"Tech\",\"Media\"]},{\"id\":\"MSWMHmX70YRV65fLvNbLOc2uin-urUxj_wBIlnuelXQ\",\"publisher\":{\"name\":\"Investing.com\",\"homepage_url\":\"https://www.investing.com/\",\"logo_url\":\"https://storage.googleapis.com/polygon-io-public/assets/news/logos/investing.png\",\"favicon_url\":\"https://storage.googleapis.com/polygon-io-public/assets/news/favicons/investing.ico\"},\"title\":\"Mid-Caps Are Far From Middling\",\"author\":\"Mike Zaccardi, CFA, CMT\",\"published_utc\":\"2021-06-25T15:32:00Z\",\"article_url\":\"https://www.investing.com/analysis/midcaps-are-far-from-middling-200588288\",\"tickers\":[\"FB\",\"AAPL\",\"AMZN\",\"MSFT\",\"GOOGL\",\"VTI\",\"VO\",\"APH\",\"DLR\",\"IDXX\",\"MCHP\",\"VV\",\"IJH\",\"IWR\",\"SCHM\",\"MDY\",\"VXF\",\"TSLA\"],\"amp_url\":\"https://m.investing.com/analysis/midcaps-are-far-from-middling-200588288?ampMode=1\",\"image_url\":\"https://i-invdn-com.investing.com/redesign/images/seo/investingcom_analysis_og.jpg\"},{\"id\":\"m-qIvLtO6YhSnV0CNMjgDsIsxp3rFm9eVImePHILkMI\",\"publisher\":{\"name\":\"Zacks Investment Research\",\"homepage_url\":\"https://www.zacks.com/\",\"logo_url\":\"https://storage.googleapis.com/polygon-io-public/assets/news/logos/zacks.png\",\"favicon_url\":\"https://storage.googleapis.com/polygon-io-public/assets/news/favicons/zacks.ico\"},\"title\":\"Microsoft (MSFT) Rolls Out Windows 11: Major Takeaways\\t\",\"author\":\"Zacks Equity Research\",\"published_utc\":\"2021-06-25T15:10:00Z\",\"article_url\":\"https://www.zacks.com/stock/news/1754333/microsoft-msft-rolls-out-windows-11-major-takeaways\",\"tickers\":[\"AMZN\",\"AAPL\",\"MSFT\",\"GOOGL\"],\"amp_url\":\"https://www.zacks.com/amp/stock/news/1754333/microsoft-msft-rolls-out-windows-11-major-takeaways\",\"image_url\":\"https://staticx-tuner.zacks.com/images/articles/main/e6/86.jpg\",\"description\":\"Microsoft's (MSFT) latest operating system Windows 11 features an revamped Start Button along with Teams Integration in the taskbar as well as a overhauled Microsoft Store among others.\"},{\"id\":\"zaXJEvOfohYfrxMkbOdYGyhjLXritDjO9qgDeeaM_V8\",\"publisher\":{\"name\":\"The Motley Fool\",\"homepage_url\":\"https://www.fool.com/\",\"logo_url\":\"https://storage.googleapis.com/polygon-io-public/assets/news/logos/themotleyfool.svg\",\"favicon_url\":\"https://storage.googleapis.com/polygon-io-public/assets/news/favicons/themotleyfool.ico\"},\"title\":\"1 Way That LendingClub Beats Apple and Starbucks\",\"author\":\"newsfeedback@fool.com (Bram Berkowitz)\",\"published_utc\":\"2021-06-25T14:45:00Z\",\"article_url\":\"https://www.fool.com/investing/2021/06/25/1-way-that-lendingclub-beats-apple-and-starbucks/\",\"tickers\":[\"LC\",\"AAPL\",\"SBUX\",\"FRC\",\"UPST\"],\"amp_url\":\"https://www.fool.com/amp/investing/2021/06/25/1-way-that-lendingclub-beats-apple-and-starbucks/\",\"image_url\":\"https://g.foolcdn.com/editorial/images/631455/lady-smiling-on-the-phone-while-at-computer.jpg\",\"description\":\"You may not think about LendingClub when talking about top brands, but the company is incredibly good at satisfying its customers.\",\"keywords\":[\"investing\"]},{\"id\":\"wxxCs8lGKwUo94R5bgFH5UmQYY3zB2LZEtOTsQSemWA\",\"publisher\":{\"name\":\"Zacks Investment Research\",\"homepage_url\":\"https://www.zacks.com/\",\"logo_url\":\"https://storage.googleapis.com/polygon-io-public/assets/news/logos/zacks.png\",\"favicon_url\":\"https://storage.googleapis.com/polygon-io-public/assets/news/favicons/zacks.ico\"},\"title\":\"Alphabet's (GOOGL) Google to Boost India Reach With Jio Deals\",\"author\":\"Zacks Equity Research\",\"published_utc\":\"2021-06-25T14:00:00Z\",\"article_url\":\"https://www.zacks.com/stock/news/1754334/alphabets-googl-google-to-boost-india-reach-with-jio-deals\",\"tickers\":[\"AAPL\",\"MSFT\",\"FB\",\"GOOGL\"],\"amp_url\":\"https://www.zacks.com/amp/stock/news/1754334/alphabets-googl-google-to-boost-india-reach-with-jio-deals\",\"image_url\":\"https://staticx-tuner.zacks.com/images/articles/main/aa/397.jpg\",\"description\":\"Alphabet's (GOOGL) Google extends its partnership with Jio Platforms over smartphone and cloud.\"}],\"status\":\"OK\",\"request_id\":\"0b7cdec097cfdfe2e439fd531e52d3af\",\"count\":10,\"next_url\":\"https://api.polygon.io:443/v2/reference/news?cursor=eyJsaW1pdCI6MTAsInNvcnQiOiJwdWJsaXNoZWRfdXRjIiwib3JkZXIiOiJkZXNjZW5kaW5nIiwidGlja2VyIjp7ImVxIjoiQUFQTCJ9LCJwdWJsaXNoZWRfdXRjIjp7fSwic2VhcmNoX2FmdGVyIjpbMTYyNDYyOTYwMDAwMCxudWxsXX0\"}"}},"recorded_at":"2021-06-26 14:58:38 GMT","recorded_with":"vcr/1.0.2, webmockr/0.8.0"}]}
