…
Return all settings back to defaults with ease.
```{r account_config_default}
account_config("default")
```

### `account_activities`
The [Account Activities Endpoint](https://alpaca.markets/docs/api-documentation/api-v2/account-activities/) returns all account activities, optionally filtered by type and date range. This endpoint supports paging - advance pages by providing the last ID supplied for a given page to `page_token`.

```r
# retrieve page 1 of account activities
(aa <- account_activities())
#> # A tibble: 50 x 11
#>    id    activity_type transaction_time    type  price   qty side  symbol
#>    <chr> <chr>         <dttm>              <chr> <dbl> <dbl> <chr> <chr> 
#>  1 2020~ FILL          2020-05-29 11:33:38 fill  2411.     1 sell  AMZN  
#>  2 2020~ FILL          2020-05-29 11:33:37 fill   124.     1 buy   BYND  
#>  3 2020~ FILL          2020-05-29 11:33:37 fill  2412.     1 buy   AMZN  
#>  4 2020~ FILL          2020-05-29 11:33:36 fill  2411.     6 sell  AMZN  
#>  5 2020~ FILL          2020-05-29 11:33:36 fill   124.     2 sell  BYND  
#>  6 2020~ FILL          2020-05-29 11:33:03 fill   124.     2 buy   BYND  
#>  7 2020~ FILL          2020-05-29 11:33:02 fill  2411.     2 buy   AMZN  
#>  8 2020~ FILL          2020-05-29 11:33:01 fill  2411.     2 buy   AMZN  
#>  9 2020~ FILL          2020-05-29 11:32:58 fill  2411.     2 buy   AMZN  
#> 10 2020~ FILL          2020-05-29 11:29:54 fill  2411.     2 sell  AMZN  
#> # ... with 40 more rows, and 3 more variables: leaves_qty <dbl>,
#> #   order_id <chr>, cum_qty <dbl>
# retrieve page 2
account_activities(page_token = aa$id[50])
#> # A tibble: 50 x 11
#>    id    activity_type transaction_time    type  price   qty side  symbol
#>    <chr> <chr>         <dttm>              <chr> <dbl> <dbl> <chr> <chr> 
#>  1 2020~ FILL          2020-05-26 15:33:53 fill   133.     2 sell  BYND  
#>  2 2020~ FILL          2020-05-26 15:33:49 fill   133.     2 buy   BYND  
#>  3 2020~ FILL          2020-05-26 15:32:32 fill   133.     2 sell  BYND  
#>  4 2020~ FILL          2020-05-26 15:32:26 fill   133.     2 buy   BYND  
#>  5 2020~ FILL          2020-05-26 15:28:09 fill   133.     2 sell  BYND  
#>  6 2020~ FILL          2020-05-26 15:28:04 fill   133.     2 buy   BYND  
#>  7 2020~ FILL          2020-05-26 15:23:10 fill   133.    10 sell  BYND  
#>  8 2020~ FILL          2020-05-26 15:23:05 fill   133.     1 buy   BYND  
#>  9 2020~ FILL          2020-05-26 15:23:05 part~  133.     1 buy   BYND  
#> 10 2020~ FILL          2020-05-26 15:22:09 fill   133.     2 buy   BYND  
#> # ... with 40 more rows, and 3 more variables: leaves_qty <dbl>,
#> #   order_id <chr>, cum_qty <dbl>
```

Optionally provide a filter. See \code{\link[AlpacaforR]{account_activities}} for a list of account activity types.

```r
account_activities("fill")
#> # A tibble: 50 x 11
#>    id    activity_type transaction_time    type  price   qty side  symbol
#>    <chr> <chr>         <dttm>              <chr> <dbl> <dbl> <chr> <chr> 
#>  1 2020~ FILL          2020-05-29 11:33:38 fill  2411.     1 sell  AMZN  
#>  2 2020~ FILL          2020-05-29 11:33:37 fill   124.     1 buy   BYND  
#>  3 2020~ FILL          2020-05-29 11:33:37 fill  2412.     1 buy   AMZN  
#>  4 2020~ FILL          2020-05-29 11:33:36 fill  2411.     6 sell  AMZN  
#>  5 2020~ FILL          2020-05-29 11:33:36 fill   124.     2 sell  BYND  
#>  6 2020~ FILL          2020-05-29 11:33:03 fill   124.     2 buy   BYND  
#>  7 2020~ FILL          2020-05-29 11:33:02 fill  2411.     2 buy   AMZN  
#>  8 2020~ FILL          2020-05-29 11:33:01 fill  2411.     2 buy   AMZN  
#>  9 2020~ FILL          2020-05-29 11:32:58 fill  2411.     2 buy   AMZN  
#> 10 2020~ FILL          2020-05-29 11:29:54 fill  2411.     2 sell  AMZN  
#> # ... with 40 more rows, and 3 more variables: leaves_qty <dbl>,
#> #   order_id <chr>, cum_qty <dbl>
```

### `account_portfolio`
The [Portfolio History Endpoint](https://alpaca.markets/docs/api-documentation/api-v2/portfolio-history/) returns a timeseries with equity and profit/loss summary for a period of time aggregated by the specified `timeframe` (*optional*) or up to a specific end date `date_end` (*optional*). 

To take a look at equity & gain/loss for the paper account over the past two weeks: 


```r
account_portfolio("2w")
#> multiplier can be 5 or 15 when `timeframe` is minutes and period or `date_end` to the present is > 7 days & < 30 days. Multiplier set to 5.
#> Timeframe set to 5 Minutes
#> # A tibble: 711 x 4
#>    timestamp           equity profit_loss profit_loss_pct
#>    <dttm>               <dbl>       <dbl>           <dbl>
#>  1 2020-05-18 09:30:00 96751.        -2.1      -0.0000217
#>  2 2020-05-18 09:35:00 96712.       -40.9      -0.000423 
#>  3 2020-05-18 09:40:00 96719.       -33.7      -0.000348 
#>  4 2020-05-18 09:45:00 96718.       -34.4      -0.000355 
#>  5 2020-05-18 09:50:00 96706.       -46.7      -0.000482 
#>  6 2020-05-18 09:55:00 96685.       -67.8      -0.000700 
#>  7 2020-05-18 10:00:00 96706.       -47.1      -0.000487 
#>  8 2020-05-18 10:05:00 96716.       -36.9      -0.000381 
#>  9 2020-05-18 10:10:00 96723.       -29.5      -0.000305 
#> 10 2020-05-18 10:15:00 96720.       -32.8      -0.000339 
#> # ... with 701 more rows
```

When `AlpacaforR` function arguments are omitted, they will be assumed with informative messages indicating what values were used for omitted arguments. In the case above, the most granular `timeframe` allowed for the period is assumed. 

To view the same data with a `timeframe` of hours instead, use the following:


```r
account_portfolio("2w", "1h")
#> # A tibble: 64 x 4
#>    timestamp           equity profit_loss profit_loss_pct
#>    <dttm>               <dbl>       <dbl>           <dbl>
#>  1 2020-05-18 09:30:00 96751.        -2.1      -0.0000217
#>  2 2020-05-18 10:30:00 96737.       -15.9      -0.000165 
#>  3 2020-05-18 11:30:00 96767.        14.2       0.000147 
#>  4 2020-05-18 12:30:00 96766.        13.4       0.000138 
#>  5 2020-05-18 13:30:00 96769.        16.0       0.000166 
#>  6 2020-05-18 14:30:00 96767.        14.4       0.000149 
#>  7 2020-05-18 15:30:00 96744.        -8.4      -0.0000868
#>  8 2020-05-19 09:30:00 96772.        18.8       0.000194 
#>  9 2020-05-19 10:30:00 96806.        53.6       0.000554 
#> 10 2020-05-19 11:30:00 96899.       146.        0.00151  
#> # ... with 54 more rows
```
…
